{
  "notifications": [ ],
  "meta": {
    "start": "",
    "end": "",
    "totalResults": 7,
    "offset": null,
    "limit": null,
    "fields": "",
    "arguments": { }
  },
  "appointmentList": [
    {
      "id": 1,
      "qpId": null,
      "publicId": "a69c5452a62f96ea079a5b494b41679612d274e89c5031a5d5cf5201b4e399d2",
      "title": "Cecile",
      "start": "2017-03-30T13:00:00.000+0000",
      "end": "2017-03-30T13:10:00.000+0000",
      "allDay": false,
      "created": 1490873090999,
      "updated": 1490873090999,
      "status": 20,
      "custom": null,
      "notes": "Testing",
      "customers": [ ],
      "branch": {
        "id": 1,
        "qpId": 1,
        "publicId": "1dc13647cfda9fec79d886f150d3be4f896f3b75391deb1f4512b27484d20749",
        "name": "Branch 1",
        "branchPrefix": null,
        "phone": "",
        "email": "",
        "addressLine1": "",
        "addressLine2": "",
        "addressCity": "",
        "addressState": null,
        "addressZip": "",
        "addressCountry": "",
        "latitude": null,
        "longitude": null,
        "created": 1490871834200,
        "updated": 1490873003264,
        "custom": "",
        "timeZone": "Europe/Amsterdam",
        "fullTimeZone": "Europe/Amsterdam"
      },
      "services": [ ],
      "resource": {
        "id": 1,
        "qpId": null,
        "name": "Test",
        "custom": "{\"color\":\"#3a87ad\"}"
      },
      "blocking": false
    },
    {
      "id": 2,
      "qpId": null,
      "publicId": "27ee9315cdd3bc902c2d77040da037e42fb04cd9a5bfa4a16d8e8ef0f23383db",
      "title": "Cecile test",
      "start": "2017-03-30T12:30:00.000+0000",
      "end": "2017-03-30T12:35:00.000+0000",
      "allDay": false,
      "created": 1490875599944,
      "updated": 1490875599960,
      "status": 20,
      "custom": null,
      "notes": "",
      "customers": [ ],
      "branch": {
        "id": 1,
        "qpId": 1,
        "publicId": "1dc13647cfda9fec79d886f150d3be4f896f3b75391deb1f4512b27484d20749",
        "name": "Branch 1",
        "branchPrefix": null,
        "phone": "",
        "email": "",
        "addressLine1": "",
        "addressLine2": "",
        "addressCity": "",
        "addressState": null,
        "addressZip": "",
        "addressCountry": "",
        "latitude": null,
        "longitude": null,
        "created": 1490871834200,
        "updated": 1490873003264,
        "custom": "",
        "timeZone": "Europe/Amsterdam",
        "fullTimeZone": "Europe/Amsterdam"
      },
      "services": [ ],
      "resource": {
        "id": 1,
        "qpId": null,
        "name": "Test",
        "custom": "{\"color\":\"#3a87ad\"}"
      },
      "blocking": false
    },
    {
      "id": 3,
      "qpId": null,
      "publicId": "8520b293844de14e6d37e0263cb542a474030bad1bf51c3a7894ab061d0627b0",
      "title": "Danie",
      "start": "2017-03-31T07:00:00.000+0000",
      "end": "2017-03-31T07:05:00.000+0000",
      "allDay": false,
      "created": 1490877913194,
      "updated": 1490877913241,
      "status": 20,
      "custom": null,
      "notes": "",
      "customers": [ ],
      "branch": {
        "id": 1,
        "qpId": 1,
        "publicId": "1dc13647cfda9fec79d886f150d3be4f896f3b75391deb1f4512b27484d20749",
        "name": "Branch 1",
        "branchPrefix": null,
        "phone": "",
        "email": "",
        "addressLine1": "",
        "addressLine2": "",
        "addressCity": "",
        "addressState": null,
        "addressZip": "",
        "addressCountry": "",
        "latitude": null,
        "longitude": null,
        "created": 1490871834200,
        "updated": 1490873003264,
        "custom": "",
        "timeZone": "Europe/Amsterdam",
        "fullTimeZone": "Europe/Amsterdam"
      },
      "services": [ ],
      "resource": {
        "id": 1,
        "qpId": null,
        "name": "Test",
        "custom": "{\"color\":\"#3a87ad\"}"
      },
      "blocking": false
    },
    {
      "id": 4,
      "qpId": null,
      "publicId": "bb94820190332a8aad7d17d6c70b31963729ae4cbb1f714fd628b61748d10237",
      "title": "DErick",
      "start": "2017-03-30T15:05:00.000+0000",
      "end": "2017-03-30T15:10:00.000+0000",
      "allDay": false,
      "created": 1490877990258,
      "updated": 1490877990274,
      "status": 20,
      "custom": null,
      "notes": "",
      "customers": [ ],
      "branch": {
        "id": 1,
        "qpId": 1,
        "publicId": "1dc13647cfda9fec79d886f150d3be4f896f3b75391deb1f4512b27484d20749",
        "name": "Branch 1",
        "branchPrefix": null,
        "phone": "",
        "email": "",
        "addressLine1": "",
        "addressLine2": "",
        "addressCity": "",
        "addressState": null,
        "addressZip": "",
        "addressCountry": "",
        "latitude": null,
        "longitude": null,
        "created": 1490871834200,
        "updated": 1490873003264,
        "custom": "",
        "timeZone": "Europe/Amsterdam",
        "fullTimeZone": "Europe/Amsterdam"
      },
      "services": [ ],
      "resource": {
        "id": 1,
        "qpId": null,
        "name": "Test",
        "custom": "{\"color\":\"#3a87ad\"}"
      },
      "blocking": false
    },
    {
      "id": 5,
      "qpId": null,
      "publicId": "bb87b3287ce3882d1b52156f06a7fd0670b90434e6e52ba51b21be629f787c81",
      "title": "Werner",
      "start": "2017-04-01T06:55:00.000+0000",
      "end": "2017-04-01T07:00:00.000+0000",
      "allDay": false,
      "created": 1490879082557,
      "updated": 1490879082557,
      "status": 20,
      "custom": null,
      "notes": "",
      "customers": [ ],
      "branch": {
        "id": 1,
        "qpId": 1,
        "publicId": "1dc13647cfda9fec79d886f150d3be4f896f3b75391deb1f4512b27484d20749",
        "name": "Branch 1",
        "branchPrefix": null,
        "phone": "",
        "email": "",
        "addressLine1": "",
        "addressLine2": "",
        "addressCity": "",
        "addressState": null,
        "addressZip": "",
        "addressCountry": "",
        "latitude": null,
        "longitude": null,
        "created": 1490871834200,
        "updated": 1490873003264,
        "custom": "",
        "timeZone": "Europe/Amsterdam",
        "fullTimeZone": "Europe/Amsterdam"
      },
      "services": [ ],
      "resource": {
        "id": 1,
        "qpId": null,
        "name": "Test",
        "custom": "{\"color\":\"#3a87ad\"}"
      },
      "blocking": false
    },
    {
      "id": 6,
      "qpId": null,
      "publicId": "43e87c4159702897bed4fb79e0755ae7859b1ea85e19531b751fb6af65decb2e",
      "title": "Nakkiran",
      "start": "2017-04-03T07:05:00.000+0000",
      "end": "2017-04-03T07:10:00.000+0000",
      "allDay": false,
      "created": 1490879090232,
      "updated": 1490879090232,
      "status": 20,
      "custom": null,
      "notes": "",
      "customers": [ ],
      "branch": {
        "id": 1,
        "qpId": 1,
        "publicId": "1dc13647cfda9fec79d886f150d3be4f896f3b75391deb1f4512b27484d20749",
        "name": "Branch 1",
        "branchPrefix": null,
        "phone": "",
        "email": "",
        "addressLine1": "",
        "addressLine2": "",
        "addressCity": "",
        "addressState": null,
        "addressZip": "",
        "addressCountry": "",
        "latitude": null,
        "longitude": null,
        "created": 1490871834200,
        "updated": 1490873003264,
        "custom": "",
        "timeZone": "Europe/Amsterdam",
        "fullTimeZone": "Europe/Amsterdam"
      },
      "services": [ ],
      "resource": {
        "id": 1,
        "qpId": null,
        "name": "Test",
        "custom": "{\"color\":\"#3a87ad\"}"
      },
      "blocking": false
    },
    {
      "id": 7,
      "qpId": null,
      "publicId": "5c0f99387d2e9a280fd02f5a381b31dbff65b7ec7661ebadd9c8cf81c68d7522",
      "title": "Wynand",
      "start": "2017-04-05T07:00:00.000+0000",
      "end": "2017-04-05T07:05:00.000+0000",
      "allDay": false,
      "created": 1490879097985,
      "updated": 1490879098016,
      "status": 20,
      "custom": null,
      "notes": "",
      "customers": [ ],
      "branch": {
        "id": 1,
        "qpId": 1,
        "publicId": "1dc13647cfda9fec79d886f150d3be4f896f3b75391deb1f4512b27484d20749",
        "name": "Branch 1",
        "branchPrefix": null,
        "phone": "",
        "email": "",
        "addressLine1": "",
        "addressLine2": "",
        "addressCity": "",
        "addressState": null,
        "addressZip": "",
        "addressCountry": "",
        "latitude": null,
        "longitude": null,
        "created": 1490871834200,
        "updated": 1490873003264,
        "custom": "",
        "timeZone": "Europe/Amsterdam",
        "fullTimeZone": "Europe/Amsterdam"
      },
      "services": [ ],
      "resource": {
        "id": 1,
        "qpId": null,
        "name": "Test",
        "custom": "{\"color\":\"#3a87ad\"}"
      },
      "blocking": false
    }
  ]
}